<?xml version="1.0" standalone="no"?>
<!DOCTYPE svg PUBLIC "-//W3C//DTD SVG 1.1//EN" "http://www.w3.org/Graphics/SVG/1.1/DTD/svg11.dtd" >
<svg xmlns="http://www.w3.org/2000/svg">
<metadata>Generated by IcoMoon</metadata>
<defs>
<font id="icomoon" horiz-adv-x="1024">
<font-face units-per-em="1024" ascent="960" descent="-64" />
<missing-glyph horiz-adv-x="1024" />
<glyph unicode="&#x20;" horiz-adv-x="512" d="" />
<glyph unicode="&#xe900;" glyph-name="cross" d="M169.813 720.214c-13.653 13.653-13.653 34.987 0 48.64 13.653 12.8 34.987 12.8 48.64 0l293.547-293.547 293.547 293.547c13.653 12.8 34.987 12.8 48.64 0 13.653-13.653 13.653-35.84 0-48.64l-293.547-293.547 293.547-294.4c13.653-13.653 13.653-34.987 0-48.64s-34.987-13.653-48.64 0l-293.547 294.4-293.547-293.547c-13.653-13.653-34.987-13.653-48.64 0s-13.653 35.84 0 48.64l292.693 293.547-292.693 293.547z" />
<glyph unicode="&#xe901;" glyph-name="next" d="M337.92 15.36c-5.973-5.973-12.8-8.533-21.333-8.533-7.68 0-15.36 2.56-21.333 8.533-11.947 11.947-11.947 30.72 0 41.813l370.347 369.493-369.493 369.493c-11.947 11.947-11.947 30.72 0 41.813 11.947 11.947 30.72 11.947 41.813 0l389.973-389.973c11.947-11.947 11.947-30.72 0-41.813l-389.973-390.827z" />
<glyph unicode="&#xe902;" glyph-name="tick" d="M970.24 791.894c-10.24 10.24-26.453 10.24-35.84 0l-676.693-676.693-168.107 168.107c-10.24 10.24-26.453 10.24-35.84 0-10.24-10.24-10.24-26.453 0-35.84l186.027-186.027c5.12-5.12 11.947-7.68 17.92-7.68 6.827 0 12.8 2.56 17.92 7.68l694.613 694.613c10.24 10.24 10.24 26.453 0 35.84v0z" />
</font></defs></svg>